-------------------------------------------------------------------------------
Test set: myob.service.InputFileReaderTest
-------------------------------------------------------------------------------
Tests run: 5, Failures: 0, Errors: 0, Skipped: 0, Time elapsed: 0.009 sec
